sim_fpga/paper-FPGA_Robotics-sim-FPGA/paper_verilator_ws/sim.vcd
$version Generated by VerilatedVcd $end
$date Sat Mar 28 16:43:38 2026
 $end
$timescale   1ns $end

 $scope module TOP $end
  $var wire 15 =) addrin [14:0] $end
  $var wire 15 M) addrout [14:0] $end
  $var wire  1 ]) capture_newframe $end
  $var wire  8 u) centroid_nop [7:0] $end
  $var wire  1 %) clk $end
  $var wire 12 E) datain [11:0] $end
  $var wire 12 e) dataout [11:0] $end
  $var wire  8 m) leds [7:0] $end
  $var wire 16 /* motor_dps_left_o [15:0] $end
  $var wire 16 7* motor_dps_rght_o [15:0] $end
  $var wire  1 }) new_centroid $end
  $var wire  3 '* proximity [2:0] $end
  $var wire  1 -) rst $end
  $var wire  3 U) wRgbfilter [2:0] $end
  $var wire  1 5) wea $end
  $scope module design_top $end
   $var wire 15 s( addrImg2Filt [14:0] $end
   $var wire 15 =) addrin [14:0] $end
   $var wire 15 M) addrout [14:0] $end
   $var wire 32 W* c_hist_bins [31:0] $end
   $var wire 32 ?* c_img_cols [31:0] $end
   $var wire 32 O* c_img_pxls [31:0] $end
   $var wire 32 G* c_img_rows [31:0] $end
   $var wire 32 1+ c_inframe_cols [31:0] $end
   $var wire 32 A+ c_inframe_pxls [31:0] $end
   $var wire 32 9+ c_inframe_rows [31:0] $end
   $var wire 32 1+ c_min_colorpxls [31:0] $end
   $var wire 32 o* c_nb_buf [31:0] $end
   $var wire 32 !+ c_nb_buf_blue [31:0] $end
   $var wire 32 !+ c_nb_buf_green [31:0] $end
   $var wire 32 !+ c_nb_buf_red [31:0] $end
   $var wire 32 W* c_nb_centroid [31:0] $end
   $var wire 32 !+ c_nb_cnt [31:0] $end
   $var wire 32 w* c_nb_dps_motor [31:0] $end
   $var wire 32 Q+ c_nb_hist_bins [31:0] $end
   $var wire 32 Y+ c_nb_hist_val [31:0] $end
   $var wire 32 W* c_nb_img_cols [31:0] $end
   $var wire 32 g* c_nb_img_pxls [31:0] $end
   $var wire 32 _* c_nb_img_rows [31:0] $end
   $var wire 32 _* c_nb_inframe_cols [31:0] $end
   $var wire 32 I+ c_nb_inframe_pxls [31:0] $end
   $var wire 32 W* c_nb_leds [31:0] $end
   $var wire 32 Q+ c_nb_prox [31:0] $end
   $var wire 32 w* c_outframe_cols [31:0] $end
   $var wire 32 W* c_outframe_rows [31:0] $end
   $var wire  1 ]) capture_newframe $end
   $var wire  8 u) centroid_nop [7:0] $end
   $var wire  8 G" centroid_wire [7:0] $end
   $var wire  1 %) clk $end
   $var wire 14 )# colorpxls [13:0] $end
   $var wire 11 w" colorpxls_bin0 [10:0] $end
   $var wire 13 Q# colorpxls_bin01 [12:0] $end
   $var wire 13 A# colorpxls_bin012 [12:0] $end
   $var wire 13 I# colorpxls_bin567 [12:0] $end
   $var wire 13 Y# colorpxls_bin67 [12:0] $end
   $var wire 11 !# colorpxls_bin7 [10:0] $end
   $var wire 13 1# colorpxls_left [12:0] $end
   $var wire 13 9# colorpxls_rght [12:0] $end
   $var wire 12 E) datain [11:0] $end
   $var wire 12 e) dataout [11:0] $end
   $var wire 12 C( doutImg2Filt [11:0] $end
   $var wire  8 m) leds [7:0] $end
   $var wire 16 /* motor_dps_left_o [15:0] $end
   $var wire 16 7* motor_dps_rght_o [15:0] $end
   $var wire  1 }) new_centroid $end
   $var wire  1 g" new_centroid_w $end
   $var wire  1 _" new_frame_proc $end
   $var wire 15 O" procAddr [14:0] $end
   $var wire 12 ;( procPixel [11:0] $end
   $var wire  1 W" procWe $end
   $var wire  3 '* proximity [2:0] $end
   $var wire  3 o" proximity_w [2:0] $end
   $var wire  7 )+ pxColRet [6:0] $end
   $var wire  1 -) rst $end
   $var wire  3 U) wRgbfilter [2:0] $end
   $var wire  1 5) wea $end
   $scope module centroid_calc $end
    $var wire 13 3 absdif_lft_rght [12:0] $end
    $var wire 32 W* c_hist_bins [31:0] $end
    $var wire 32 ?* c_img_cols [31:0] $end
    $var wire 32 O* c_img_pxls [31:0] $end
    $var wire 32 G* c_img_rows [31:0] $end
    $var wire 32 1+ c_inframe_cols [31:0] $end
    $var wire 32 A+ c_inframe_pxls [31:0] $end
    $var wire 32 9+ c_inframe_rows [31:0] $end
    $var wire 32 1+ c_min_colorpxls [31:0] $end
    $var wire 32 W* c_nb_centroid [31:0] $end
    $var wire 32 W* c_nb_cols [31:0] $end
    $var wire 32 Q+ c_nb_hist_bins [31:0] $end
    $var wire 32 Y+ c_nb_hist_val [31:0] $end
    $var wire 32 g* c_nb_img_pxls [31:0] $end
    $var wire 32 I+ c_nb_inframe_pxls [31:0] $end
    $var wire 32 Q+ c_nb_prox [31:0] $end
    $var wire 32 _* c_nb_rows [31:0] $end
    $var wire  8 G" centroid_o [7:0] $end
    $var wire  8 # centroid_tmp [7:0] $end
    $var wire  1 %) clk $end
    $var wire 13 A# colorpxls_bin012_i [12:0] $end
    $var wire 13 Q# colorpxls_bin01_i [12:0] $end
    $var wire 11 w" colorpxls_bin0_i [10:0] $end
    $var wire 13 I# colorpxls_bin567_i [12:0] $end
    $var wire 13 Y# colorpxls_bin67_i [12:0] $end
    $var wire 11 !# colorpxls_bin7_i [10:0] $end
    $var wire 13 I' colorpxls_div [12:0] $end
    $var wire 13 A' colorpxls_half [12:0] $end
    $var wire 14 )# colorpxls_i [13:0] $end
    $var wire 13 1# colorpxls_left_i [12:0] $end
    $var wire 13 9# colorpxls_rght_i [12:0] $end
    $var wire  1 + left $end
    $var wire  1 g" new_centroid_o $end
    $var wire  1 _" new_frame_proc_i $end
    $var wire  3 o" proximity_o [2:0] $end
    $var wire  3 Q' proximity_tmp [2:0] $end
    $var wire  1 -) rst $end
   $upscope $end
   $scope module color_filter $end
    $var wire 15 q+ C_BLACK_PXL [14:0] $end
    $var wire 12 y+ C_BLACK_PXL_BUF [11:0] $end
    $var wire  4 [( blu [3:0] $end
    $var wire  1 s blu_limit $end
    $var wire 32 W* c_hist_bins [31:0] $end
    $var wire 32 ?* c_img_cols [31:0] $end
    $var wire 32 O* c_img_pxls [31:0] $end
    $var wire 32 G* c_img_rows [31:0] $end
    $var wire 32 1+ c_inframe_cols [31:0] $end
    $var wire 32 A+ c_inframe_pxls [31:0] $end
    $var wire 32 9+ c_inframe_rows [31:0] $end
    $var wire 32 1+ c_min_colorpixels [31:0] $end
    $var wire 32 Q+ c_msb_blu [31:0] $end
    $var wire 32 _* c_msb_grn [31:0] $end
    $var wire 32 Y+ c_msb_red [31:0] $end
    $var wire 32 o* c_nb_buf [31:0] $end
    $var wire 32 !+ c_nb_buf_blue [31:0] $end
    $var wire 32 !+ c_nb_buf_green [31:0] $end
    $var wire 32 !+ c_nb_buf_red [31:0] $end
    $var wire 32 W* c_nb_cols [31:0] $end
    $var wire 32 Q+ c_nb_hist_bins [31:0] $end
    $var wire 32 Y+ c_nb_hist_val [31:0] $end
    $var wire 32 g* c_nb_img_pxls [31:0] $end
    $var wire 32 _* c_nb_inframe_cols [31:0] $end
    $var wire 32 I+ c_nb_inframe_pxls [31:0] $end
    $var wire 32 _* c_nb_rows [31:0] $end
    $var wire 32 w* c_outframe_cols [31:0] $end
    $var wire 32 W* c_outframe_rows [31:0] $end
    $var wire  4 a+ c_simil_limit [3:0] $end
    $var wire  4 i+ c_vdif_limit [3:0] $end
    $var wire  1 %) clk $end
    $var wire 15 s( cnt_pxl [14:0] $end
    $var wire 15 3$ cnt_pxl_proc [14:0] $end
    $var wire 15 O" cnt_pxl_proc_rg [14:0] $end
    $var wire  8 W& col [7:0] $end
    $var wire  8 g& col_inframe [7:0] $end
    $var wire  8 _& col_rg [7:0] $end
    $var wire  1 k( color_threshold $end
    $var wire 14 }% colorpxls [13:0] $end
    $var wire 11 w" colorpxls_bin0 [10:0] $end
    $var wire 13 G& colorpxls_bin01 [12:0] $end
    $var wire 13 7& colorpxls_bin012 [12:0] $end
    $var wire 13 A# colorpxls_bin012_o [12:0] $end
    $var wire 13 Q# colorpxls_bin01_o [12:0] $end
    $var wire 11 a# colorpxls_bin1 [10:0] $end
    $var wire 11 i# colorpxls_bin2 [10:0] $end
    $var wire 11 q# colorpxls_bin3 [10:0] $end
    $var wire 11 y# colorpxls_bin4 [10:0] $end
    $var wire 11 #$ colorpxls_bin5 [10:0] $end
    $var wire 13 ?& colorpxls_bin567 [12:0] $end
    $var wire 13 I# colorpxls_bin567_o [12:0] $end
    $var wire 11 +$ colorpxls_bin6 [10:0] $end
    $var wire 13 O& colorpxls_bin67 [12:0] $end
    $var wire 13 Y# colorpxls_bin67_o [12:0] $end
    $var wire 11 !# colorpxls_bin7 [10:0] $end
    $var wire 13 '& colorpxls_left [12:0] $end
    $var wire 13 1# colorpxls_left_o [12:0] $end
    $var wire 14 )# colorpxls_o [13:0] $end
    $var wire 13 /& colorpxls_rght [12:0] $end
    $var wire 13 9# colorpxls_rght_o [12:0] $end
    $var wire  1 %! cya_limit $end
    $var wire  1 ;$ end_ln $end
    $var wire  1 {( end_pxl_cnt $end
    $var wire  1 5! gra_limit $end
    $var wire  4 S( grn [3:0] $end
    $var wire  4 m! grn_blu_absdif [3:0] $end
    $var wire  1 '" grn_blu_simil $end
    $var wire  1 ?" grn_blu_vdif $end
    $var wire  1 U! grn_gt_blu $end
    $var wire  1 k grn_limit $end
    $var wire  3 o& hist_bin [2:0] $end
    $var wire  3 w& hist_bin_rg [2:0] $end
    $var wire 11 =% histogram(0) [10:0] $end
    $var wire 11 >% histogram(1) [10:0] $end
    $var wire 11 ?% histogram(2) [10:0] $end
    $var wire 11 @% histogram(3) [10:0] $end
    $var wire 11 A% histogram(4) [10:0] $end
    $var wire 11 B% histogram(5) [10:0] $end
    $var wire 11 C% histogram(6) [10:0] $end
    $var wire 11 D% histogram(7) [10:0] $end
    $var wire 11 [$ histogram_tmp(0) [10:0] $end
    $var wire 11 \$ histogram_tmp(1) [10:0] $end
    $var wire 11 ]$ histogram_tmp(2) [10:0] $end
    $var wire 11 ^$ histogram_tmp(3) [10:0] $end
    $var wire 11 _$ histogram_tmp(4) [10:0] $end
    $var wire 11 `$ histogram_tmp(5) [10:0] $end
    $var wire 11 a$ histogram_tmp(6) [10:0] $end
    $var wire 11 b$ histogram_tmp(7) [10:0] $end
    $var wire 32 S$ ind [31:0] $end
    $var wire  1 C$ inner_frame $end
    $var wire  1 K$ inner_frame_rg $end
    $var wire  1 -! mag_limit $end
    $var wire  1 ]) new_frame_i $end
    $var wire  1 _" new_frame_proc_o $end
    $var wire 15 s( orig_addr [14:0] $end
    $var wire 12 C( orig_pxl [11:0] $end
    $var wire 12 1' orig_pxl_rg [11:0] $end
    $var wire 15 O" proc_addr [14:0] $end
    $var wire 12 ;( proc_pxl [11:0] $end
    $var wire  1 W" proc_we $end
    $var wire  1 9' proc_we_rg1 $end
    $var wire  1 W" proc_we_rg2 $end
    $var wire  1 )' processing $end
    $var wire  4 K( red [3:0] $end
    $var wire  4 e! red_blu_absdif [3:0] $end
    $var wire  1 }! red_blu_simil $end
    $var wire  1 7" red_blu_vdif $end
    $var wire  4 ]! red_grn_absdif [3:0] $end
    $var wire  1 u! red_grn_simil $end
    $var wire  1 /" red_grn_vdif $end
    $var wire  1 M! red_gt_blu $end
    $var wire  1 E! red_gt_grn $end
    $var wire  1 c red_limit $end
    $var wire  6 c( rgb222 [5:0] $end
    $var wire  3 U) rgbfilter [2:0] $end
    $var wire  7 !' row_num [6:0] $end
    $var wire  1 -) rst $end
    $var wire  1 =! whi_limit $end
    $var wire  1 { yel_limit $end
   $upscope $end
   $scope module frame_buff_in $end
    $var wire 15 =) addra [14:0] $end
    $var wire 15 s( addrb [14:0] $end
    $var wire 32 ?* c_img_cols [31:0] $end
    $var wire 32 O* c_img_pxls [31:0] $end
    $var wire 32 G* c_img_rows [31:0] $end
    $var wire 32 o* c_nb_buf [31:0] $end
    $var wire 32 !+ c_nb_buf_blue [31:0] $end
    $var wire 32 !+ c_nb_buf_green [31:0] $end
    $var wire 32 !+ c_nb_buf_red [31:0] $end
    $var wire 32 g* c_nb_img_pxls [31:0] $end
    $var wire  1 %) clk $end
    $var wire 12 E) dina [11:0] $end
    $var wire 12 C( doutb [11:0] $end
    $var wire  1 5) wea $end
   $upscope $end
   $scope module frame_buff_out $end
    $var wire 15 O" addra [14:0] $end
    $var wire 15 M) addrb [14:0] $end
    $var wire 32 ?* c_img_cols [31:0] $end
    $var wire 32 O* c_img_pxls [31:0] $end
    $var wire 32 G* c_img_rows [31:0] $end
    $var wire 32 o* c_nb_buf [31:0] $end
    $var wire 32 !+ c_nb_buf_blue [31:0] $end
    $var wire 32 !+ c_nb_buf_green [31:0] $end
    $var wire 32 !+ c_nb_buf_red [31:0] $end
    $var wire 32 g* c_nb_img_pxls [31:0] $end
    $var wire  1 %) clk $end
    $var wire 12 ;( dina [11:0] $end
    $var wire 12 e) doutb [11:0] $end
    $var wire  1 W" wea $end
   $upscope $end
   $scope module motor_ctrl_spi_out $end
    $var wire  4 +, c_end_cnt [3:0] $end
    $var wire 16 [, c_vel0 [15:0] $end
    $var wire 16 m- c_vel0_neg [15:0] $end
    $var wire 16 S, c_vel1 [15:0] $end
    $var wire 16 e- c_vel1_neg [15:0] $end
    $var wire 16 K, c_vel2 [15:0] $end
    $var wire 16 ]- c_vel2_neg [15:0] $end
    $var wire 16 C, c_vel3 [15:0] $end
    $var wire 16 U- c_vel3_neg [15:0] $end
    $var wire 16 ;, c_vel4 [15:0] $end
    $var wire 16 3, c_vel5 [15:0] $end
    $var wire 16 c, c_vel_add0 [15:0] $end
    $var wire 16 k, c_vel_add1 [15:0] $end
    $var wire 16 s, c_vel_add2 [15:0] $end
    $var wire 16 {, c_vel_add3 [15:0] $end
    $var wire 16 %- c_vel_add4 [15:0] $end
    $var wire 16 -- c_vel_sub0 [15:0] $end
    $var wire 16 5- c_vel_sub1 [15:0] $end
    $var wire 16 =- c_vel_sub2 [15:0] $end
    $var wire 16 E- c_vel_sub3 [15:0] $end
    $var wire 16 M- c_vel_sub4 [15:0] $end
    $var wire  8 G" centroid [7:0] $end
    $var wire  2 [ centroid2bit [1:0] $end
    $var wire  1 %) clk $end
    $var wire  4 q' cnt [3:0] $end
    $var wire  1 y' cnt_end $end
    $var wire  1 #, enable $end
    $var wire  8 #( last_cent_valid [7:0] $end
    $var wire  1 +( last_seen_left $end
    $var wire  1 i' lost_obj $end
    $var wire 16 Y' motor_dps_left [15:0] $end
    $var wire 16 /* motor_dps_left_o [15:0] $end
    $var wire 16 a' motor_dps_rght [15:0] $end
    $var wire 16 7* motor_dps_rght_o [15:0] $end
    $var wire 32 !+ nb_cnt [31:0] $end
    $var wire 32 w* nb_dps_motor [31:0] $end
    $var wire  1 S neg_vel $end
    $var wire  1 g" new_centroid $end
    $var wire  3 o" proximity [2:0] $end
    $var wire  1 -) rst $end
    $var wire  1 3( tracking $end
    $var wire 16 ; vel [15:0] $end
    $var wire 16 C vel_addside [15:0] $end
    $var wire 16 K vel_slowside [15:0] $end
   $upscope $end
  $upscope $end
 $upscope $end
$enddefinitions $end


#0
b00000000 #
0+
b0000000000000 3
b0000001001011000 ;
b0000000000000000 C
b0000001001011000 K
0S
b00 [
0c
0k
0s
0{
0%!
0-!
05!
0=!
0E!
0M!
0U!
b0100 ]!
b0111 e!
b0011 m!
0u!
0}!
0'"
0/"
17"
0?"
b00000000 G"
b000000000000000 O"
0W"
0_"
0g"
b000 o"
b00000000000 w"
b00000000000 !#
b00000000000000 )#
b0000000000000 1#
b0000000000000 9#
b0000000000000 A#
b0000000000000 I#
b0000000000000 Q#
b0000000000000 Y#
b00000000000 a#
b00000000000 i#
b00000000000 q#
b00000000000 y#
b00000000000 #$
b00000000000 +$
b000000000000000 3$
0;$
0C$
0K$
b00000000000000000000000000001000 S$
b00000000000 [$
b00000000000 \$
b00000000000 ]$
b00000000000 ^$
b00000000000 _$
b00000000000 `$
b00000000000 a$
b00000000000 b$
b00000000000 =%
b00000000000 >%
b00000000000 ?%
b00000000000 @%
b00000000000 A%
b00000000000 B%
b00000000000 C%
b00000000000 D%
b00000000000000 }%
b0000000000000 '&
b0000000000000 /&
b0000000000000 7&
b0000000000000 ?&
b0000000000000 G&
b0000000000000 O&
b00000000 W&
b00000000 _&
b11110000 g&
b111 o&
b000 w&
b0000000 !'
0)'
b000000000000 1'
09'
b0000000000000 A'
b0000000000000 I'
b000 Q'
b0000000000000000 Y'
b0000000000000000 a'
1i'
b0000 q'
0y'
b00000000 #(
0+(
03(
b000000000000 ;(
b011010101101 C(
b0110 K(
b1010 S(
b1101 [(
b011011 c(
0k(
b000000000000000 s(
0{(
1%)
1-)
15)
b000000000000000 =)
b111111111111 E)
b000000000000000 M)
b000 U)
1])
b101110101000 e)
b00000000 m)
b00000000 u)
0})
b000 '*
b0000000000000000 /*
b0000000000000000 7*
b00000000000000000000000010100000 ?*
b00000000000000000000000001111000 G*
b00000000000000000100101100000000 O*
b00000000000000000000000000001000 W*
b00000000000000000000000000000111 _*
b00000000000000000000000000001111 g*
b00000000000000000000000000001100 o*
b00000000000000000000000000010000 w*
b00000000000000000000000000000100 !+
b1011111 )+
b00000000000000000000000010000000 1+
b00000000000000000000000001101000 9+
b00000000000000000011010000000000 A+
b00000000000000000000000000001110 I+
b00000000000000000000000000000011 Q+
b00000000000000000000000000001011 Y+
b0010 a+
b0110 i+
b000000000000000 q+
b000000000000 y+
1#,
b1111 +,
b0000001001011000 3,
b0000001000100110 ;,
b0000000111000010 C,
b0000000101011110 K,
b0000000011111010 S,
b0000000010010110 [,
b0000000001001011 c,
b0000000001111101 k,
b0000000010101111 s,
b0000000011100001 {,
b0000000100010011 %-
b1111111110110101 --
b1111111110000011 5-
b1111111101010001 =-
b1111111100011111 E-
b1111111011101101 M-
b1111111000111110 U-
b1111111010100010 ]-
b1111111100000110 e-
b1111111101101010 m-
#1
0%)
#2
1E!
b0010 ]!
b0011 e!
b0101 m!
1u!
07"
b101010001101 C(
b1010 K(
b1000 S(
b101011 c(
1k(
1%)
b000000000000001 =)
b000000000000001 M)
b110000001111 e)
#3
0%)
#4
15!
1=!
0E!
b0000 ]!
b0000 e!
b0000 m!
1}!
1'"
b111111111111 C(
b1111 K(
b1111 S(
b1111 [(
b111111 c(
1%)
b000000000000010 =)
b000000000000010 M)
b100101011111 e)
#5
0%)
#6
1%)
b000000000000011 =)
b000000000000011 M)
b110011101011 e)
#7
0%)
#8
1%)
b000000000000100 =)
b000000000000100 M)
b001010000101 e)
#9
0%)
#10
1%)
b000000000000101 =)
b000000000000101 M)
b011101010111 e)
#11
0%)
#12
1%)
b000000000000110 =)
b000000000000110 M)
b110111111011 e)
#13
0%)
#14
1%)
b000000000000111 =)
b000000000000111 M)
b011001100000 e)
#15
0%)
#16
1%)
b000000000001000 =)
b000000000001000 M)
b110001101010 e)
#17
0%)
#18
1%)
b000000000001001 =)
b000000000001001 M)
b010110010000 e)
